{"events":[{"id":3642,"global_id":"yourway.gallaudet.edu?id=3642","global_id_lineage":["yourway.gallaudet.edu?id=3642"],"author":"2","status":"publish","date":"2020-09-23 02:58:51","date_utc":"2020-09-23 02:58:51","modified":"2020-10-07 19:59:14","modified_utc":"2020-10-07 19:59:14","url":"https:\/\/yourway.gallaudet.edu\/event\/covid-safety-6\/","rest_url":"https:\/\/yourway.gallaudet.edu\/wp-json\/tribe\/events\/v1\/events\/3642","title":"COVID Safety","description":"Join from a PC, Mac, iPad, iPhone or Android device:    Please click this URL to join. https:\/\/gallaudet.zoom.us\/webinar\/register\/WN_Kw0RC3ItRUmuHPxf3VyfwQ    Description: ASL\/English with CC","excerpt":"","slug":"covid-safety-6","image":false,"all_day":false,"start_date":"2020-10-12 15:00:00","start_date_details":{"year":"2020","month":"10","day":"12","hour":"15","minutes":"00","seconds":"00"},"end_date":"2020-10-12 17:00:00","end_date_details":{"year":"2020","month":"10","day":"12","hour":"17","minutes":"00","seconds":"00"},"utc_start_date":"2020-10-12 19:00:00","utc_start_date_details":{"year":"2020","month":"10","day":"12","hour":"19","minutes":"00","seconds":"00"},"utc_end_date":"2020-10-12 21:00:00","utc_end_date_details":{"year":"2020","month":"10","day":"12","hour":"21","minutes":"00","seconds":"00"},"timezone":"America\/New_York","timezone_abbr":"EDT","cost":"","cost_details":{"currency_symbol":"","currency_position":"","values":[]},"website":"","show_map":false,"show_map_link":false,"hide_from_listings":false,"sticky":false,"featured":false,"categories":[{"name":"COVID-19 Webinar Training","slug":"covid-19-webinar-training","term_group":0,"term_taxonomy_id":49,"taxonomy":"tribe_events_cat","description":"COVID-19 Webinar Training","parent":0,"count":20,"filter":"raw","id":49,"urls":{"self":"https:\/\/yourway.gallaudet.edu\/wp-json\/tribe\/events\/v1\/categories\/49","collection":"https:\/\/yourway.gallaudet.edu\/wp-json\/tribe\/events\/v1\/categories"}}],"tags":[],"venue":{"id":4375,"status":"publish","date":"2020-10-05 20:00:02","date_utc":"2020-10-05 20:00:02","modified":"2020-10-07 16:11:51","modified_utc":"2020-10-07 16:11:51","url":"https:\/\/yourway.gallaudet.edu\/venue\/https-gallaudet-zoom-us-webinar-register-wn_kw0rc3itrumuhpxf3vyfwq\/","venue":"https:\/\/gallaudet.zoom.us\/webinar\/register\/WN_Kw0RC3ItRUmuHPxf3VyfwQ","slug":"https-gallaudet-zoom-us-webinar-register-wn_kw0rc3itrumuhpxf3vyfwq","show_map":true,"show_map_link":true,"global_id":"yourway.gallaudet.edu?id=4375","global_id_lineage":["yourway.gallaudet.edu?id=4375"]},"organizer":[]},{"id":3999,"global_id":"yourway.gallaudet.edu?id=3999","global_id_lineage":["yourway.gallaudet.edu?id=3999"],"author":"2","status":"publish","date":"2020-09-29 20:55:48","date_utc":"2020-09-29 20:55:48","modified":"2020-10-11 19:40:04","modified_utc":"2020-10-11 19:40:04","url":"https:\/\/yourway.gallaudet.edu\/event\/covid-safety-20\/","rest_url":"https:\/\/yourway.gallaudet.edu\/wp-json\/tribe\/events\/v1\/events\/3999","title":"COVID Safety","description":"Join from a PC, Mac, iPad, iPhone, or Android device:    Please click this URL to register. htps:\/\/gallaudet.zoom.us\/webinar\/register\/WN_C_5CVlMkRmuy4E3qI8nWfA   ","excerpt":"","slug":"covid-safety-20","image":false,"all_day":false,"start_date":"2020-10-13 08:00:00","start_date_details":{"year":"2020","month":"10","day":"13","hour":"08","minutes":"00","seconds":"00"},"end_date":"2020-10-13 10:00:00","end_date_details":{"year":"2020","month":"10","day":"13","hour":"10","minutes":"00","seconds":"00"},"utc_start_date":"2020-10-13 12:00:00","utc_start_date_details":{"year":"2020","month":"10","day":"13","hour":"12","minutes":"00","seconds":"00"},"utc_end_date":"2020-10-13 14:00:00","utc_end_date_details":{"year":"2020","month":"10","day":"13","hour":"14","minutes":"00","seconds":"00"},"timezone":"America\/New_York","timezone_abbr":"EDT","cost":"","cost_details":{"currency_symbol":"","currency_position":"","values":[]},"website":"","show_map":false,"show_map_link":false,"hide_from_listings":false,"sticky":false,"featured":false,"categories":[{"name":"COVID-19 Webinar Training","slug":"covid-19-webinar-training","term_group":0,"term_taxonomy_id":49,"taxonomy":"tribe_events_cat","description":"COVID-19 Webinar Training","parent":0,"count":20,"filter":"raw","id":49,"urls":{"self":"https:\/\/yourway.gallaudet.edu\/wp-json\/tribe\/events\/v1\/categories\/49","collection":"https:\/\/yourway.gallaudet.edu\/wp-json\/tribe\/events\/v1\/categories"}}],"tags":[],"venue":{"id":4394,"status":"publish","date":"2020-10-05 23:45:02","date_utc":"2020-10-05 23:45:02","modified":"2020-10-07 16:11:51","modified_utc":"2020-10-07 16:11:51","url":"https:\/\/yourway.gallaudet.edu\/venue\/https-gallaudet-zoom-us-webinar-register-wn_c_5cvlmkrmuy4e3qi8nwfa\/","venue":"https:\/\/gallaudet.zoom.us\/webinar\/register\/WN_C_5CVlMkRmuy4E3qI8nWfA","slug":"https-gallaudet-zoom-us-webinar-register-wn_c_5cvlmkrmuy4e3qi8nwfa","show_map":true,"show_map_link":true,"global_id":"yourway.gallaudet.edu?id=4394","global_id_lineage":["yourway.gallaudet.edu?id=4394"]},"organizer":[]},{"id":3644,"global_id":"yourway.gallaudet.edu?id=3644","global_id_lineage":["yourway.gallaudet.edu?id=3644"],"author":"2","status":"publish","date":"2020-09-23 02:58:52","date_utc":"2020-09-23 02:58:52","modified":"2020-10-07 19:59:08","modified_utc":"2020-10-07 19:59:08","url":"https:\/\/yourway.gallaudet.edu\/event\/covid-safety-8\/","rest_url":"https:\/\/yourway.gallaudet.edu\/wp-json\/tribe\/events\/v1\/events\/3644","title":"COVID Safety","description":"Join from a PC, Mac, iPad, iPhone or Android device:    Please click this URL to join. https:\/\/gallaudet.zoom.us\/webinar\/register\/WN_Kw0RC3ItRUmuHPxf3VyfwQ    Description: ASL\/English with CC","excerpt":"","slug":"covid-safety-8","image":false,"all_day":false,"start_date":"2020-10-13 15:00:00","start_date_details":{"year":"2020","month":"10","day":"13","hour":"15","minutes":"00","seconds":"00"},"end_date":"2020-10-13 17:00:00","end_date_details":{"year":"2020","month":"10","day":"13","hour":"17","minutes":"00","seconds":"00"},"utc_start_date":"2020-10-13 19:00:00","utc_start_date_details":{"year":"2020","month":"10","day":"13","hour":"19","minutes":"00","seconds":"00"},"utc_end_date":"2020-10-13 21:00:00","utc_end_date_details":{"year":"2020","month":"10","day":"13","hour":"21","minutes":"00","seconds":"00"},"timezone":"America\/New_York","timezone_abbr":"EDT","cost":"","cost_details":{"currency_symbol":"","currency_position":"","values":[]},"website":"","show_map":false,"show_map_link":false,"hide_from_listings":false,"sticky":false,"featured":false,"categories":[{"name":"COVID-19 Webinar Training","slug":"covid-19-webinar-training","term_group":0,"term_taxonomy_id":49,"taxonomy":"tribe_events_cat","description":"COVID-19 Webinar Training","parent":0,"count":20,"filter":"raw","id":49,"urls":{"self":"https:\/\/yourway.gallaudet.edu\/wp-json\/tribe\/events\/v1\/categories\/49","collection":"https:\/\/yourway.gallaudet.edu\/wp-json\/tribe\/events\/v1\/categories"}}],"tags":[],"venue":{"id":4375,"status":"publish","date":"2020-10-05 20:00:02","date_utc":"2020-10-05 20:00:02","modified":"2020-10-07 16:11:51","modified_utc":"2020-10-07 16:11:51","url":"https:\/\/yourway.gallaudet.edu\/venue\/https-gallaudet-zoom-us-webinar-register-wn_kw0rc3itrumuhpxf3vyfwq\/","venue":"https:\/\/gallaudet.zoom.us\/webinar\/register\/WN_Kw0RC3ItRUmuHPxf3VyfwQ","slug":"https-gallaudet-zoom-us-webinar-register-wn_kw0rc3itrumuhpxf3vyfwq","show_map":true,"show_map_link":true,"global_id":"yourway.gallaudet.edu?id=4375","global_id_lineage":["yourway.gallaudet.edu?id=4375"]},"organizer":[]},{"id":4000,"global_id":"yourway.gallaudet.edu?id=4000","global_id_lineage":["yourway.gallaudet.edu?id=4000"],"author":"2","status":"publish","date":"2020-09-29 20:55:49","date_utc":"2020-09-29 20:55:49","modified":"2020-10-11 19:40:04","modified_utc":"2020-10-11 19:40:04","url":"https:\/\/yourway.gallaudet.edu\/event\/covid-safety-21\/","rest_url":"https:\/\/yourway.gallaudet.edu\/wp-json\/tribe\/events\/v1\/events\/4000","title":"COVID Safety","description":"Join from a PC, Mac, iPad, iPhone, or Android device:    Please click this URL to register. htps:\/\/gallaudet.zoom.us\/webinar\/register\/WN_C_5CVlMkRmuy4E3qI8nWfA   ","excerpt":"","slug":"covid-safety-21","image":false,"all_day":false,"start_date":"2020-10-16 08:00:00","start_date_details":{"year":"2020","month":"10","day":"16","hour":"08","minutes":"00","seconds":"00"},"end_date":"2020-10-16 10:00:00","end_date_details":{"year":"2020","month":"10","day":"16","hour":"10","minutes":"00","seconds":"00"},"utc_start_date":"2020-10-16 12:00:00","utc_start_date_details":{"year":"2020","month":"10","day":"16","hour":"12","minutes":"00","seconds":"00"},"utc_end_date":"2020-10-16 14:00:00","utc_end_date_details":{"year":"2020","month":"10","day":"16","hour":"14","minutes":"00","seconds":"00"},"timezone":"America\/New_York","timezone_abbr":"EDT","cost":"","cost_details":{"currency_symbol":"","currency_position":"","values":[]},"website":"","show_map":false,"show_map_link":false,"hide_from_listings":false,"sticky":false,"featured":false,"categories":[{"name":"COVID-19 Webinar Training","slug":"covid-19-webinar-training","term_group":0,"term_taxonomy_id":49,"taxonomy":"tribe_events_cat","description":"COVID-19 Webinar Training","parent":0,"count":20,"filter":"raw","id":49,"urls":{"self":"https:\/\/yourway.gallaudet.edu\/wp-json\/tribe\/events\/v1\/categories\/49","collection":"https:\/\/yourway.gallaudet.edu\/wp-json\/tribe\/events\/v1\/categories"}}],"tags":[],"venue":{"id":4394,"status":"publish","date":"2020-10-05 23:45:02","date_utc":"2020-10-05 23:45:02","modified":"2020-10-07 16:11:51","modified_utc":"2020-10-07 16:11:51","url":"https:\/\/yourway.gallaudet.edu\/venue\/https-gallaudet-zoom-us-webinar-register-wn_c_5cvlmkrmuy4e3qi8nwfa\/","venue":"https:\/\/gallaudet.zoom.us\/webinar\/register\/WN_C_5CVlMkRmuy4E3qI8nWfA","slug":"https-gallaudet-zoom-us-webinar-register-wn_c_5cvlmkrmuy4e3qi8nwfa","show_map":true,"show_map_link":true,"global_id":"yourway.gallaudet.edu?id=4394","global_id_lineage":["yourway.gallaudet.edu?id=4394"]},"organizer":[]},{"id":3646,"global_id":"yourway.gallaudet.edu?id=3646","global_id_lineage":["yourway.gallaudet.edu?id=3646"],"author":"2","status":"publish","date":"2020-09-23 02:58:52","date_utc":"2020-09-23 02:58:52","modified":"2020-10-07 19:58:45","modified_utc":"2020-10-07 19:58:45","url":"https:\/\/yourway.gallaudet.edu\/event\/covid-safety-10\/","rest_url":"https:\/\/yourway.gallaudet.edu\/wp-json\/tribe\/events\/v1\/events\/3646","title":"COVID Safety","description":"Join from a PC, Mac, iPad, iPhone or Android device:    Please click this URL to join. https:\/\/gallaudet.zoom.us\/webinar\/register\/WN_Kw0RC3ItRUmuHPxf3VyfwQ    Description: ASL\/English with CC","excerpt":"","slug":"covid-safety-10","image":false,"all_day":false,"start_date":"2020-10-16 15:00:00","start_date_details":{"year":"2020","month":"10","day":"16","hour":"15","minutes":"00","seconds":"00"},"end_date":"2020-10-16 17:00:00","end_date_details":{"year":"2020","month":"10","day":"16","hour":"17","minutes":"00","seconds":"00"},"utc_start_date":"2020-10-16 19:00:00","utc_start_date_details":{"year":"2020","month":"10","day":"16","hour":"19","minutes":"00","seconds":"00"},"utc_end_date":"2020-10-16 21:00:00","utc_end_date_details":{"year":"2020","month":"10","day":"16","hour":"21","minutes":"00","seconds":"00"},"timezone":"America\/New_York","timezone_abbr":"EDT","cost":"","cost_details":{"currency_symbol":"","currency_position":"","values":[]},"website":"","show_map":false,"show_map_link":false,"hide_from_listings":false,"sticky":false,"featured":false,"categories":[{"name":"COVID-19 Webinar Training","slug":"covid-19-webinar-training","term_group":0,"term_taxonomy_id":49,"taxonomy":"tribe_events_cat","description":"COVID-19 Webinar Training","parent":0,"count":20,"filter":"raw","id":49,"urls":{"self":"https:\/\/yourway.gallaudet.edu\/wp-json\/tribe\/events\/v1\/categories\/49","collection":"https:\/\/yourway.gallaudet.edu\/wp-json\/tribe\/events\/v1\/categories"}}],"tags":[],"venue":{"id":4375,"status":"publish","date":"2020-10-05 20:00:02","date_utc":"2020-10-05 20:00:02","modified":"2020-10-07 16:11:51","modified_utc":"2020-10-07 16:11:51","url":"https:\/\/yourway.gallaudet.edu\/venue\/https-gallaudet-zoom-us-webinar-register-wn_kw0rc3itrumuhpxf3vyfwq\/","venue":"https:\/\/gallaudet.zoom.us\/webinar\/register\/WN_Kw0RC3ItRUmuHPxf3VyfwQ","slug":"https-gallaudet-zoom-us-webinar-register-wn_kw0rc3itrumuhpxf3vyfwq","show_map":true,"show_map_link":true,"global_id":"yourway.gallaudet.edu?id=4375","global_id_lineage":["yourway.gallaudet.edu?id=4375"]},"organizer":[]},{"id":3647,"global_id":"yourway.gallaudet.edu?id=3647","global_id_lineage":["yourway.gallaudet.edu?id=3647"],"author":"2","status":"publish","date":"2020-09-23 02:58:53","date_utc":"2020-09-23 02:58:53","modified":"2020-10-07 19:58:41","modified_utc":"2020-10-07 19:58:41","url":"https:\/\/yourway.gallaudet.edu\/event\/covid-safety-11\/","rest_url":"https:\/\/yourway.gallaudet.edu\/wp-json\/tribe\/events\/v1\/events\/3647","title":"COVID Safety","description":"Join from a PC, Mac, iPad, iPhone or Android device:    Please click this URL to join. https:\/\/gallaudet.zoom.us\/webinar\/register\/WN_Kw0RC3ItRUmuHPxf3VyfwQ    Description: ASL\/English with CC","excerpt":"","slug":"covid-safety-11","image":false,"all_day":false,"start_date":"2020-10-19 15:00:00","start_date_details":{"year":"2020","month":"10","day":"19","hour":"15","minutes":"00","seconds":"00"},"end_date":"2020-10-19 17:00:00","end_date_details":{"year":"2020","month":"10","day":"19","hour":"17","minutes":"00","seconds":"00"},"utc_start_date":"2020-10-19 19:00:00","utc_start_date_details":{"year":"2020","month":"10","day":"19","hour":"19","minutes":"00","seconds":"00"},"utc_end_date":"2020-10-19 21:00:00","utc_end_date_details":{"year":"2020","month":"10","day":"19","hour":"21","minutes":"00","seconds":"00"},"timezone":"America\/New_York","timezone_abbr":"EDT","cost":"","cost_details":{"currency_symbol":"","currency_position":"","values":[]},"website":"","show_map":false,"show_map_link":false,"hide_from_listings":false,"sticky":false,"featured":false,"categories":[{"name":"COVID-19 Webinar Training","slug":"covid-19-webinar-training","term_group":0,"term_taxonomy_id":49,"taxonomy":"tribe_events_cat","description":"COVID-19 Webinar Training","parent":0,"count":20,"filter":"raw","id":49,"urls":{"self":"https:\/\/yourway.gallaudet.edu\/wp-json\/tribe\/events\/v1\/categories\/49","collection":"https:\/\/yourway.gallaudet.edu\/wp-json\/tribe\/events\/v1\/categories"}}],"tags":[],"venue":{"id":4375,"status":"publish","date":"2020-10-05 20:00:02","date_utc":"2020-10-05 20:00:02","modified":"2020-10-07 16:11:51","modified_utc":"2020-10-07 16:11:51","url":"https:\/\/yourway.gallaudet.edu\/venue\/https-gallaudet-zoom-us-webinar-register-wn_kw0rc3itrumuhpxf3vyfwq\/","venue":"https:\/\/gallaudet.zoom.us\/webinar\/register\/WN_Kw0RC3ItRUmuHPxf3VyfwQ","slug":"https-gallaudet-zoom-us-webinar-register-wn_kw0rc3itrumuhpxf3vyfwq","show_map":true,"show_map_link":true,"global_id":"yourway.gallaudet.edu?id=4375","global_id_lineage":["yourway.gallaudet.edu?id=4375"]},"organizer":[]},{"id":4001,"global_id":"yourway.gallaudet.edu?id=4001","global_id_lineage":["yourway.gallaudet.edu?id=4001"],"author":"2","status":"publish","date":"2020-09-29 20:55:49","date_utc":"2020-09-29 20:55:49","modified":"2020-10-11 19:40:04","modified_utc":"2020-10-11 19:40:04","url":"https:\/\/yourway.gallaudet.edu\/event\/covid-safety-22\/","rest_url":"https:\/\/yourway.gallaudet.edu\/wp-json\/tribe\/events\/v1\/events\/4001","title":"COVID Safety","description":"Join from a PC, Mac, iPad, iPhone, or Android device:    Please click this URL to register. htps:\/\/gallaudet.zoom.us\/webinar\/register\/WN_C_5CVlMkRmuy4E3qI8nWfA   ","excerpt":"","slug":"covid-safety-22","image":false,"all_day":false,"start_date":"2020-10-20 08:00:00","start_date_details":{"year":"2020","month":"10","day":"20","hour":"08","minutes":"00","seconds":"00"},"end_date":"2020-10-20 10:00:00","end_date_details":{"year":"2020","month":"10","day":"20","hour":"10","minutes":"00","seconds":"00"},"utc_start_date":"2020-10-20 12:00:00","utc_start_date_details":{"year":"2020","month":"10","day":"20","hour":"12","minutes":"00","seconds":"00"},"utc_end_date":"2020-10-20 14:00:00","utc_end_date_details":{"year":"2020","month":"10","day":"20","hour":"14","minutes":"00","seconds":"00"},"timezone":"America\/New_York","timezone_abbr":"EDT","cost":"","cost_details":{"currency_symbol":"","currency_position":"","values":[]},"website":"","show_map":false,"show_map_link":false,"hide_from_listings":false,"sticky":false,"featured":false,"categories":[{"name":"COVID-19 Webinar Training","slug":"covid-19-webinar-training","term_group":0,"term_taxonomy_id":49,"taxonomy":"tribe_events_cat","description":"COVID-19 Webinar Training","parent":0,"count":20,"filter":"raw","id":49,"urls":{"self":"https:\/\/yourway.gallaudet.edu\/wp-json\/tribe\/events\/v1\/categories\/49","collection":"https:\/\/yourway.gallaudet.edu\/wp-json\/tribe\/events\/v1\/categories"}}],"tags":[],"venue":{"id":4394,"status":"publish","date":"2020-10-05 23:45:02","date_utc":"2020-10-05 23:45:02","modified":"2020-10-07 16:11:51","modified_utc":"2020-10-07 16:11:51","url":"https:\/\/yourway.gallaudet.edu\/venue\/https-gallaudet-zoom-us-webinar-register-wn_c_5cvlmkrmuy4e3qi8nwfa\/","venue":"https:\/\/gallaudet.zoom.us\/webinar\/register\/WN_C_5CVlMkRmuy4E3qI8nWfA","slug":"https-gallaudet-zoom-us-webinar-register-wn_c_5cvlmkrmuy4e3qi8nwfa","show_map":true,"show_map_link":true,"global_id":"yourway.gallaudet.edu?id=4394","global_id_lineage":["yourway.gallaudet.edu?id=4394"]},"organizer":[]},{"id":3649,"global_id":"yourway.gallaudet.edu?id=3649","global_id_lineage":["yourway.gallaudet.edu?id=3649"],"author":"2","status":"publish","date":"2020-09-23 02:58:54","date_utc":"2020-09-23 02:58:54","modified":"2020-10-07 19:58:34","modified_utc":"2020-10-07 19:58:34","url":"https:\/\/yourway.gallaudet.edu\/event\/covid-safety-13\/","rest_url":"https:\/\/yourway.gallaudet.edu\/wp-json\/tribe\/events\/v1\/events\/3649","title":"COVID Safety","description":"Join from a PC, Mac, iPad, iPhone or Android device:    Please click this URL to join. https:\/\/gallaudet.zoom.us\/webinar\/register\/WN_Kw0RC3ItRUmuHPxf3VyfwQ    Description: ASL\/English with CC","excerpt":"","slug":"covid-safety-13","image":false,"all_day":false,"start_date":"2020-10-20 15:00:00","start_date_details":{"year":"2020","month":"10","day":"20","hour":"15","minutes":"00","seconds":"00"},"end_date":"2020-10-20 17:00:00","end_date_details":{"year":"2020","month":"10","day":"20","hour":"17","minutes":"00","seconds":"00"},"utc_start_date":"2020-10-20 19:00:00","utc_start_date_details":{"year":"2020","month":"10","day":"20","hour":"19","minutes":"00","seconds":"00"},"utc_end_date":"2020-10-20 21:00:00","utc_end_date_details":{"year":"2020","month":"10","day":"20","hour":"21","minutes":"00","seconds":"00"},"timezone":"America\/New_York","timezone_abbr":"EDT","cost":"","cost_details":{"currency_symbol":"","currency_position":"","values":[]},"website":"","show_map":false,"show_map_link":false,"hide_from_listings":false,"sticky":false,"featured":false,"categories":[{"name":"COVID-19 Webinar Training","slug":"covid-19-webinar-training","term_group":0,"term_taxonomy_id":49,"taxonomy":"tribe_events_cat","description":"COVID-19 Webinar Training","parent":0,"count":20,"filter":"raw","id":49,"urls":{"self":"https:\/\/yourway.gallaudet.edu\/wp-json\/tribe\/events\/v1\/categories\/49","collection":"https:\/\/yourway.gallaudet.edu\/wp-json\/tribe\/events\/v1\/categories"}}],"tags":[],"venue":{"id":4375,"status":"publish","date":"2020-10-05 20:00:02","date_utc":"2020-10-05 20:00:02","modified":"2020-10-07 16:11:51","modified_utc":"2020-10-07 16:11:51","url":"https:\/\/yourway.gallaudet.edu\/venue\/https-gallaudet-zoom-us-webinar-register-wn_kw0rc3itrumuhpxf3vyfwq\/","venue":"https:\/\/gallaudet.zoom.us\/webinar\/register\/WN_Kw0RC3ItRUmuHPxf3VyfwQ","slug":"https-gallaudet-zoom-us-webinar-register-wn_kw0rc3itrumuhpxf3vyfwq","show_map":true,"show_map_link":true,"global_id":"yourway.gallaudet.edu?id=4375","global_id_lineage":["yourway.gallaudet.edu?id=4375"]},"organizer":[]},{"id":4002,"global_id":"yourway.gallaudet.edu?id=4002","global_id_lineage":["yourway.gallaudet.edu?id=4002"],"author":"2","status":"publish","date":"2020-09-29 20:55:50","date_utc":"2020-09-29 20:55:50","modified":"2020-10-11 19:40:04","modified_utc":"2020-10-11 19:40:04","url":"https:\/\/yourway.gallaudet.edu\/event\/covid-safety-23\/","rest_url":"https:\/\/yourway.gallaudet.edu\/wp-json\/tribe\/events\/v1\/events\/4002","title":"COVID Safety","description":"Join from a PC, Mac, iPad, iPhone, or Android device:    Please click this URL to register. htps:\/\/gallaudet.zoom.us\/webinar\/register\/WN_C_5CVlMkRmuy4E3qI8nWfA   ","excerpt":"","slug":"covid-safety-23","image":false,"all_day":false,"start_date":"2020-10-23 08:00:00","start_date_details":{"year":"2020","month":"10","day":"23","hour":"08","minutes":"00","seconds":"00"},"end_date":"2020-10-23 10:00:00","end_date_details":{"year":"2020","month":"10","day":"23","hour":"10","minutes":"00","seconds":"00"},"utc_start_date":"2020-10-23 12:00:00","utc_start_date_details":{"year":"2020","month":"10","day":"23","hour":"12","minutes":"00","seconds":"00"},"utc_end_date":"2020-10-23 14:00:00","utc_end_date_details":{"year":"2020","month":"10","day":"23","hour":"14","minutes":"00","seconds":"00"},"timezone":"America\/New_York","timezone_abbr":"EDT","cost":"","cost_details":{"currency_symbol":"","currency_position":"","values":[]},"website":"","show_map":false,"show_map_link":false,"hide_from_listings":false,"sticky":false,"featured":false,"categories":[{"name":"COVID-19 Webinar Training","slug":"covid-19-webinar-training","term_group":0,"term_taxonomy_id":49,"taxonomy":"tribe_events_cat","description":"COVID-19 Webinar Training","parent":0,"count":20,"filter":"raw","id":49,"urls":{"self":"https:\/\/yourway.gallaudet.edu\/wp-json\/tribe\/events\/v1\/categories\/49","collection":"https:\/\/yourway.gallaudet.edu\/wp-json\/tribe\/events\/v1\/categories"}}],"tags":[],"venue":{"id":4394,"status":"publish","date":"2020-10-05 23:45:02","date_utc":"2020-10-05 23:45:02","modified":"2020-10-07 16:11:51","modified_utc":"2020-10-07 16:11:51","url":"https:\/\/yourway.gallaudet.edu\/venue\/https-gallaudet-zoom-us-webinar-register-wn_c_5cvlmkrmuy4e3qi8nwfa\/","venue":"https:\/\/gallaudet.zoom.us\/webinar\/register\/WN_C_5CVlMkRmuy4E3qI8nWfA","slug":"https-gallaudet-zoom-us-webinar-register-wn_c_5cvlmkrmuy4e3qi8nwfa","show_map":true,"show_map_link":true,"global_id":"yourway.gallaudet.edu?id=4394","global_id_lineage":["yourway.gallaudet.edu?id=4394"]},"organizer":[]},{"id":3651,"global_id":"yourway.gallaudet.edu?id=3651","global_id_lineage":["yourway.gallaudet.edu?id=3651"],"author":"2","status":"publish","date":"2020-09-23 02:58:55","date_utc":"2020-09-23 02:58:55","modified":"2020-10-07 19:58:28","modified_utc":"2020-10-07 19:58:28","url":"https:\/\/yourway.gallaudet.edu\/event\/covid-safety-15\/","rest_url":"https:\/\/yourway.gallaudet.edu\/wp-json\/tribe\/events\/v1\/events\/3651","title":"COVID Safety","description":"Join from a PC, Mac, iPad, iPhone or Android device:    Please click this URL to join. https:\/\/gallaudet.zoom.us\/webinar\/register\/WN_Kw0RC3ItRUmuHPxf3VyfwQ    Description: ASL\/English with CC","excerpt":"","slug":"covid-safety-15","image":false,"all_day":false,"start_date":"2020-10-23 15:00:00","start_date_details":{"year":"2020","month":"10","day":"23","hour":"15","minutes":"00","seconds":"00"},"end_date":"2020-10-23 17:00:00","end_date_details":{"year":"2020","month":"10","day":"23","hour":"17","minutes":"00","seconds":"00"},"utc_start_date":"2020-10-23 19:00:00","utc_start_date_details":{"year":"2020","month":"10","day":"23","hour":"19","minutes":"00","seconds":"00"},"utc_end_date":"2020-10-23 21:00:00","utc_end_date_details":{"year":"2020","month":"10","day":"23","hour":"21","minutes":"00","seconds":"00"},"timezone":"America\/New_York","timezone_abbr":"EDT","cost":"","cost_details":{"currency_symbol":"","currency_position":"","values":[]},"website":"","show_map":false,"show_map_link":false,"hide_from_listings":false,"sticky":false,"featured":false,"categories":[{"name":"COVID-19 Webinar Training","slug":"covid-19-webinar-training","term_group":0,"term_taxonomy_id":49,"taxonomy":"tribe_events_cat","description":"COVID-19 Webinar Training","parent":0,"count":20,"filter":"raw","id":49,"urls":{"self":"https:\/\/yourway.gallaudet.edu\/wp-json\/tribe\/events\/v1\/categories\/49","collection":"https:\/\/yourway.gallaudet.edu\/wp-json\/tribe\/events\/v1\/categories"}}],"tags":[],"venue":{"id":4375,"status":"publish","date":"2020-10-05 20:00:02","date_utc":"2020-10-05 20:00:02","modified":"2020-10-07 16:11:51","modified_utc":"2020-10-07 16:11:51","url":"https:\/\/yourway.gallaudet.edu\/venue\/https-gallaudet-zoom-us-webinar-register-wn_kw0rc3itrumuhpxf3vyfwq\/","venue":"https:\/\/gallaudet.zoom.us\/webinar\/register\/WN_Kw0RC3ItRUmuHPxf3VyfwQ","slug":"https-gallaudet-zoom-us-webinar-register-wn_kw0rc3itrumuhpxf3vyfwq","show_map":true,"show_map_link":true,"global_id":"yourway.gallaudet.edu?id=4375","global_id_lineage":["yourway.gallaudet.edu?id=4375"]},"organizer":[]}],"rest_url":"https:\/\/yourway.gallaudet.edu\/wp-json\/tribe\/events\/v1\/events\/?page=1&amp;per_page=10&amp;start_date=2020-10-11 00:00:00&amp;end_date=2022-10-11 23:59:59&amp;status=publish","next_rest_url":"https:\/\/yourway.gallaudet.edu\/wp-json\/tribe\/events\/v1\/events\/?per_page=10&amp;start_date=2020-10-11+00%3A00%3A00&amp;end_date=2022-10-11+23%3A59%3A59&amp;status=publish&amp;page=2","total":15,"total_pages":2}
